csv-sources/DS0006.CSV

Format,1.0B,
Memory Length,10000,
IntpDistance,0,
Trigger Address,4999,
Trigger Level,0.000E+00,
Source,Math,
Vertical Units,V,
Vertical Units Div,0,
Vertical Units Extend Div,16,
Label, ,
Probe Type,0,
Probe Ratio,1.000E+00,
Vertical Scale,5.000E+00,
Vertical Position,0.000E+00,
Horizontal Units,S,
Horizontal Scale,1.000E-04,
Horizontal Position,0.000E+00,
Horizontal Mode,Main,
SincET Mode,Real Time,
Sampling Period,1.000E-07,
Horizontal Old Scale,1.000E-04,
Horizontal Old Position,0.000E+00,
Firmware,V1.23,
Mode,Detail,
Waveform Data,
-5.000000e-04,8.00e-01,
-4.999000e-04,2.00e-01,
-4.998000e-04,4.00e-01,
-4.997000e-04,0.00e+00,
-4.996000e-04,0.00e+00,
-4.995000e-04,0.00e+00,
-4.994000e-04,4.00e-01,
-4.993000e-04,4.00e-01,
-4.992000e-04,4.00e-01,
-4.991000e-04,0.00e+00,
-4.990000e-04,-6.00e-01,
-4.989000e-04,-4.00e-01,
-4.988000e-04,4.00e-01,
-4.987000e-04,0.00e+00,
-4.986000e-04,4.00e-01,
-4.985000e-04,1.00e+00,
-4.984000e-04,0.00e+00,
-4.983000e-04,6.00e-01,
-4.982000e-04,0.00e+00,
-4.981000e-04,4.00e-01,
-4.980000e-04,0.00e+00,
-4.979000e-04,0.00e+00,
-4.978000e-04,0.00e+00,
-4.977000e-04,0.00e+00,
-4.976000e-04,0.00e+00,
-4.975000e-04,-8.00e-01,
-4.974000e-04,2.00e-01,
-4.973000e-04,6.00e-01,
-4.972000e-04,6.00e-01,
-4.971000e-04,4.00e-01,
-4.970000e-04,4.00e-01,
-4.969000e-04,8.00e-01,
-4.968000e-04,-4.00e-01,
-4.967000e-04,8.00e-01,
-4.966000e-04,-8.00e-01,
-4.965000e-04,2.00e-01,
-4.964000e-04,0.00e+00,
-4.963000e-04,0.00e+00,
-4.962000e-04,-4.00e-01,
-4.961000e-04,8.00e-01,
-4.960000e-04,0.00e+00,
-4.959000e-04,4.00e-01,
-4.958000e-04,-4.00e-01,
-4.957000e-04,2.00e-01,
-4.956000e-04,2.00e-01,
-4.955000e-04,6.00e-01,
-4.954000e-04,4.00e-01,
-4.953000e-04,0.00e+00,
-4.952000e-04,4.00e-01,
-4.951000e-04,2.00e-01,
-4.950000e-04,-4.00e-01,
-4.949000e-04,-2.00e-01,
-4.948000e-04,2.00e-01,
-4.947000e-04,4.00e-01,
-4.946000e-04,6.00e-01,
-4.945000e-04,6.00e-01,
-4.944000e-04,-2.00e-01,
-4.943000e-04,4.00e-01,
-4.942000e-04,0.00e+00,
-4.941000e-04,2.00e-01,
-4.940000e-04,8.00e-01,
-4.939000e-04,1.00e+00,
-4.938000e-04,0.00e+00,
-4.937000e-04,4.00e-01,
-4.936000e-04,2.00e-01,
-4.935000e-04,2.00e-01,
-4.934000e-04,6.00e-01,
-4.933000e-04,6.00e-01,
-4.932000e-04,0.00e+00,
-4.931000e-04,4.00e-01,
-4.930000e-04,2.00e-01,
-4.929000e-04,6.00e-01,
-4.928000e-04,6.00e-01,
-4.927000e-04,-4.00e-01,
-4.926000e-04,0.00e+00,
-4.925000e-04,1.20e+00,
-4.924000e-04,8.00e-01,
-4.923000e-04,1.20e+00,
-4.922000e-04,0.00e+00,
-4.921000e-04,-2.00e-01,
-4.920000e-04,6.00e-01,
-4.919000e-04,2.00e-01,
-4.918000e-04,4.00e-01,
-4.917000e-04,2.00e-01,
-4.916000e-04,0.00e+00,
-4.915000e-04,-6.00e-01,
-4.914000e-04,-4.00e-01,
-4.913000e-04,2.00e-01,
-4.912000e-04,0.00e+00,
-4.911000e-04,1.20e+00,
-4.910000e-04,4.00e-01,
-4.909000e-04,1.40e+00,
-4.908000e-04,8.00e-01,
-4.907000e-04,8.00e-01,
-4.906000e-04,0.00e+00,
-4.905000e-04,6.00e-01,
-4.904000e-04,0.00e+00,
-4.903000e-04,2.00e-01,
-4.902000e-04,-2.00e-01,
-4.901000e-04,0.00e+00,
-4.900000e-04,6.00e-01,
-4.899000e-04,0.00e+00,
-4.898000e-04,6.00e-01,
-4.897000e-04,0.00e+00,
-4.896000e-04,4.00e-01,
-4.895000e-04,8.00e-01,
-4.894000e-04,2.00e-01,
-4.893000e-04,8.00e-01,
-4.892000e-04,6.00e-01,
-4.891000e-04,6.00e-01,
-4.890000e-04,2.00e-01,
-4.889000e-04,8.00e-01,
-4.888000e-04,0.00e+00,
-4.887000e-04,2.00e-01,
-4.886000e-04,4.00e-01,
-4.885000e-04,4.00e-01,
-4.884000e-04,8.00e-01,
-4.883000e-04,6.00e-01,
-4.882000e-04,1.20e+00,
-4.881000e-04,4.00e-01,
-4.880000e-04,6.00e-01,
-4.879000e-04,6.00e-01,
-4.878000e-04,8.00e-01,
-4.877000e-04,1.00e+00,
-4.876000e-04,4.00e-01,
-4.875000e-04,8.00e-01,
-4.874000e-04,8.00e-01,
-4.873000e-04,2.00e-01,
-4.872000e-04,8.00e-01,
-4.871000e-04,4.00e-01,
-4.870000e-04,-6.00e-01,
-4.869000e-04,8.00e-01,
-4.868000e-04,6.00e-01,
-4.867000e-04,1.40e+00,
-4.866000e-04,2.00e-01,
-4.865000e-04,8.00e-01,
-4.864000e-04,1.00e+00,
-4.863000e-04,8.00e-01,
-4.862000e-04,1.40e+00,
-4.861000e-04,0.00e+00,
-4.860000e-04,4.00e-01,
-4.859000e-04,4.00e-01,
-4.858000e-04,1.00e+00,
-4.857000e-04,8.00e-01,
-4.856000e-04,4.00e-01,
-4.855000e-04,4.00e-01,
-4.854000e-04,2.00e-01,
-4.853000e-04,6.00e-01,
-4.852000e-04,1.00e+00,
-4.851000e-04,1.00e+00,
-4.850000e-04,4.00e-01,
-4.849000e-04,6.00e-01,
-4.848000e-04,6.00e-01,
-4.847000e-04,4.00e-01,
-4.846000e-04,6.00e-01,
-4.845000e-04,1.80e+00,
-4.844000e-04,1.40e+00,
-4.843000e-04,1.20e+00,
-4.842000e-04,4.00e-01,
-4.841000e-04,4.00e-01,
-4.840000e-04,1.20e+00,
-4.839000e-04,6.00e-01,
-4.838000e-04,8.00e-01,
-4.837000e-04,1.00e+00,
-4.836000e-04,1.20e+00,
-4.835000e-04,6.00e-01,
-4.834000e-04,8.00e-01,
-4.833000e-04,6.00e-01,
-4.832000e-04,8.00e-01,
-4.831000e-04,6.00e-01,
-4.830000e-04,8.00e-01,
-4.829000e-04,1.60e+00,
-4.828000e-04,2.00e-01,
-4.827000e-04,1.40e+00,
-4.826000e-04,1.00e+00,
-4.825000e-04,6.00e-01,
-4.824000e-04,4.00e-01,
-4.823000e-04,1.20e+00,
-4.822000e-04,1.00e+00,
-4.821000e-04,1.20e+00,
-4.820000e-04,4.00e-01,
-4.819000e-04,1.40e+00,
-4.818000e-04,6.00e-01,
-4.817000e-04,8.00e-01,
-4.816000e-04,4.00e-01,
-4.815000e-04,6.00e-01,
-4.814000e-04,0.00e+00,
-4.813000e-04,1.60e+00,
-4.812000e-04,1.40e+00,
-4.811000e-04,6.00e-01,
-4.810000e-04,2.00e+00,
-4.809000e-04,1.20e+00,
-4.808000e-04,1.20e+00,
-4.807000e-04,1.60e+00,
-4.806000e-04,6.00e-01,
-4.805000e-04,4.00e-01,
-4.804000e-04,6.00e-01,
-4.803000e-04,1.60e+00,
-4.802000e-04,4.00e-01,
-4.801000e-04,1.40e+00,
-4.800000e-04,4.00e-01,
-4.799000e-04,4.00e-01,
-4.798000e-04,8.00e-01,
-4.797000e-04,8.00e-01,
-4.796000e-04,1.60e+00,
-4.795000e-04,1.20e+00,
-4.794000e-04,1.20e+00,
-4.793000e-04,1.00e+00,
-4.792000e-04,1.80e+00,
-4.791000e-04,1.20e+00,
-4.790000e-04,6.00e-01,
-4.789000e-04,1.00e+00,
-4.788000e-04,1.00e+00,
-4.787000e-04,6.00e-01,
-4.786000e-04,1.20e+00,
-4.785000e-04,8.00e-01,
-4.784000e-04,1.00e+00,
-4.783000e-04,1.00e+00,
-4.782000e-04,2.00e+00,
-4.781000e-04,1.40e+00,
-4.780000e-04,1.60e+00,
-4.779000e-04,6.00e-01,
-4.778000e-04,1.00e+00,
-4.777000e-04,4.00e-01,
-4.776000e-04,4.00e-01,
-4.775000e-04,1.00e+00,
-4.774000e-04,1.40e+00,
-4.773000e-04,8.00e-01,
-4.772000e-04,1.80e+00,
-4.771000e-04,1.00e+00,
-4.770000e-04,2.00e+00,
-4.769000e-04,8.00e-01,
-4.768000e-04,1.60e+00,
-4.767000e-04,6.00e-01,
-4.766000e-04,1.80e+00,
-4.765000e-04,1.40e+00,
-4.764000e-04,1.00e+00,
-4.763000e-04,1.20e+00,
-4.762000e-04,1.00e+00,
-4.761000e-04,1.00e+00,
-4.760000e-04,2.00e+00,
-4.759000e-04,1.40e+00,
-4.758000e-04,6.00e-01,
-4.757000e-04,1.80e+00,
-4.756000e-04,1.80e+00,
-4.755000e-04,8.00e-01,
-4.754000e-04,2.00e+00,
-4.753000e-04,1.60e+00,
-4.752000e-04,6.00e-01,
-4.751000e-04,1.00e+00,
-4.750000e-04,1.20e+00,
-4.749000e-04,1.80e+00,
-4.748000e-04,1.20e+00,
-4.747000e-04,1.00e+00,
-4.746000e-04,1.40e+00,
-4.745000e-04,1.20e+00,
-4.744000e-04,1.00e+00,
-4.743000e-04,1.20e+00,
-4.742000e-04,1.00e+00,
-4.741000e-04,1.20e+00,
-4.740000e-04,1.60e+00,
-4.739000e-04,1.20e+00,
-4.738000e-04,1.80e+00,
-4.737000e-04,1.60e+00,
-4.736000e-04,1.40e+00,
-4.735000e-04,1.20e+00,
-4.734000e-04,8.00e-01,
-4.733000e-04,1.20e+00,
-4.732000e-04,2.00e-01,
-4.731000e-04,1.00e+00,
-4.730000e-04,0.00e+00,
-4.729000e-04,1.80e+00,
-4.728000e-04,2.00e-01,
-4.727000e-04,8.00e-01,
-4.726000e-04,1.20e+00,
-4.725000e-04,1.20e+00,
-4.724000e-04,1.80e+00,
-4.723000e-04,1.20e+00,
-4.722000e-04,2.00e+00,
-4.721000e-04,8.00e-01,
-4.720000e-04,1.20e+00,
-4.719000e-04,1.20e+00,
-4.718000e-04,1.20e+00,
-4.717000e-04,1.80e+00,
-4.716000e-04,1.00e+00,
-4.715000e-04,1.00e+00,
-4.714000e-04,1.00e+00,
-4.713000e-04,1.60e+00,
-4.712000e-04,2.00e+00,
-4.711000e-04,1.80e+00,
-4.710000e-04,1.20e+00,
-4.709000e-04,1.20e+00,
-4.708000e-04,1.60e+00,
-4.707000e-04,1.20e+00,
-4.706000e-04,8.00e-01,
-4.705000e-04,1.20e+00,
-4.704000e-04,1.00e+00,
-4.703000e-04,1.60e+00,
-4.702000e-04,1.60e+00,
-4.701000e-04,1.20e+00,
-4.700000e-04,1.00e+00,
-4.699000e-04,2.40e+00,
-4.698000e-04,1.20e+00,
-4.697000e-04,1.40e+00,
-4.696000e-04,1.60e+00,
-4.695000e-04,4.00e-01,
-4.694000e-04,1.20e+00,
-4.693000e-04,1.40e+00,
-4.692000e-04,8.00e-01,
-4.691000e-04,1.20e+00,
-4.690000e-04,1.20e+00,
-4.689000e-04,1.20e+00,
-4.688000e-04,2.40e+00,
-4.687000e-04,1.40e+00,
-4.686000e-04,8.00e-01,
-4.685000e-04,1.40e+00,
-4.684000e-04,1.60e+00,
-4.683000e-04,1.00e+00,
-4.682000e-04,1.60e+00,
-4.681000e-04,1.00e+00,
-4.680000e-04,2.40e+00,
-4.679000e-04,1.60e+00,
-4.678000e-04,1.80e+00,
-4.677000e-04,1.80e+00,
-4.676000e-04,1.20e+00,
-4.675000e-04,1.20e+00,
-4.674000e-04,2.00e+00,
-4.673000e-04,1.40e+00,
-4.672000e-04,8.00e-01,
-4.671000e-04,1.60e+00,
-4.670000e-04,1.60e+00,
-4.669000e-04,1.80e+00,
-4.668000e-04,1.20e+00,
-4.667000e-04,2.00e+00,
-4.666000e-04,1.40e+00,
-4.665000e-04,1.00e+00,
-4.664000e-04,1.40e+00,
-4.663000e-04,1.40e+00,
-4.662000e-04,1.80e+00,
-4.661000e-04,1.60e+00,
-4.660000e-04,1.60e+00,
-4.659000e-04,1.80e+00,
-4.658000e-04,1.20e+00,
-4.657000e-04,1.40e+00,
-4.656000e-04,1.60e+00,
-4.655000e-04,1.40e+00,
-4.654000e-04,1.60e+00,
-4.653000e-04,2.00e+00,
-4.652000e-04,1.60e+00,
-4.651000e-04,8.00e-01,
-4.650000e-04,1.60e+00,
-4.649000e-04,8.00e-01,
-4.648000e-04,1.60e+00,
-4.647000e-04,1.60e+00,
-4.646000e-04,1.00e+00,
-4.645000e-04,1.00e+00,
-4.644000e-04,1.80e+00,
-4.643000e-04,2.00e+00,
-4.642000e-04,1.20e+00,
-4.641000e-04,1.20e+00,
-4.640000e-04,2.40e+00,
-4.639000e-04,2.20e+00,
-4.638000e-04,2.20e+00,
-4.637000e-04,1.20e+00,
-4.636000e-04,1.60e+00,
-4.635000e-04,1.40e+00,
-4.634000e-04,1.20e+00,
-4.633000e-04,2.20e+00,
-4.632000e-04,1.80e+00,
-4.631000e-04,1.40e+00,
-4.630000e-04,1.60e+00,
-4.629000e-04,2.00e+00,
-4.628000e-04,1.60e+00,
-4.627000e-04,1.20e+00,
-4.626000e-04,1.60e+00,
-4.625000e-04,1.80e+00,
-4.624000e-04,2.00e+00,
-4.623000e-04,1.80e+00,
-4.622000e-04,2.00e+00,
-4.621000e-04,1.80e+00,
-4.620000e-04,2.00e+00,
-4.619000e-04,6.00e-01,
-4.618000e-04,1.20e+00,
-4.617000e-04,2.20e+00,
-4.616000e-04,1.00e+00,
-4.615000e-04,1.40e+00,
-4.614000e-04,2.00e+00,
-4.613000e-04,1.80e+00,
-4.612000e-04,2.40e+00,
-4.611000e-04,8.00e-01,
-4.610000e-04,1.80e+00,
-4.609000e-04,1.40e+00,
-4.608000e-04,1.60e+00,
-4.607000e-04,1.80e+00,
-4.606000e-04,1.80e+00,
-4.605000e-04,1.60e+00,
-4.604000e-04,8.00e-01,
-4.603000e-04,2.20e+00,
-4.602000e-04,1.80e+00,
-4.601000e-04,1.40e+00,
-4.600000e-04,1.20e+00,
-4.599000e-04,2.20e+00,
-4.598000e-04,1.60e+00,
-4.597000e-04,1.60e+00,
-4.596000e-04,2.00e+00,
-4.595000e-04,2.00e+00,
-4.594000e-04,1.80e+00,
-4.593000e-04,1.40e+00,
-4.592000e-04,1.20e+00,
-4.591000e-04,1.20e+00,
-4.590000e-04,2.00e+00,
-4.589000e-04,1.60e+00,
-4.588000e-04,2.00e+00,
-4.587000e-04,1.60e+00,
-4.586000e-04,2.00e+00,
-4.585000e-04,1.40e+00,
-4.584000e-04,2.00e+00,
-4.583000e-04,2.00e+00,
-4.582000e-04,8.00e-01,
-4.581000e-04,2.00e+00,
-4.580000e-04,2.00e+00,
-4.579000e-04,1.60e+00,
-4.578000e-04,1.40e+00,
-4.577000e-04,1.20e+00,
-4.576000e-04,1.60e+00,
-4.575000e-04,1.60e+00,
-4.574000e-04,1.60e+00,
-4.573000e-04,1.80e+00,
-4.572000e-04,1.40e+00,
-4.571000e-04,2.00e+00,
-4.570000e-04,2.00e+00,
-4.569000e-04,1.60e+00,
-4.568000e-04,2.20e+00,
-4.567000e-04,2.00e+00,
-4.566000e-04,1.40e+00,
-4.565000e-04,1.60e+00,
-4.564000e-04,2.00e+00,
-4.563000e-04,1.60e+00,
-4.562000e-04,1.60e+00,
-4.561000e-04,1.60e+00,
-4.560000e-04,2.60e+00,
-4.559000e-04,2.40e+00,
-4.558000e-04,1.60e+00,
-4.557000e-04,1.60e+00,
-4.556000e-04,2.00e+00,
-4.555000e-04,2.00e+00,
-4.554000e-04,1.80e+00,
-4.553000e-04,8.00e-01,
-4.552000e-04,1.00e+00,
-4.551000e-04,1.80e+00,
-4.550000e-04,2.60e+00,
-4.549000e-04,1.60e+00,
-4.548000e-04,2.00e+00,
-4.547000e-04,2.00e+00,
-4.546000e-04,1.40e+00,
-4.545000e-04,1.60e+00,
-4.544000e-04,1.40e+00,
-4.543000e-04,1.20e+00,
-4.542000e-04,2.00e+00,
-4.541000e-04,2.20e+00,
-4.540000e-04,2.00e+00,
-4.539000e-04,2.00e+00,
-4.538000e-04,1.20e+00,
-4.537000e-04,2.40e+00,
-4.536000e-04,1.60e+00,
-4.535000e-04,1.20e+00,
-4.534000e-04,2.20e+00,
-4.533000e-04,2.60e+00,
-4.532000e-04,1.40e+00,
-4.531000e-04,2.60e+00,
-4.530000e-04,2.00e+00,
-4.529000e-04,1.80e+00,
-4.528000e-04,1.20e+00,
-4.527000e-04,2.20e+00,
-4.526000e-04,2.20e+00,
-4.525000e-04,1.60e+00,
-4.524000e-04,1.60e+00,
-4.523000e-04,1.40e+00,
-4.522000e-04,1.80e+00,
-4.521000e-04,2.00e+00,
-4.520000e-04,2.20e+00,
-4.519000e-04,2.20e+00,
-4.518000e-04,2.00e+00,
-4.517000e-04,2.20e+00,
-4.516000e-04,1.60e+00,
-4.515000e-04,2.00e+00,
-4.514000e-04,1.80e+00,
-4.513000e-04,1.60e+00,
-4.512000e-04,2.00e+00,
-4.511000e-04,1.80e+00,
-4.510000e-04,1.80e+00,
-4.509000e-04,1.20e+00,
-4.508000e-04,2.00e+00,
-4.507000e-04,1.80e+00,
-4.506000e-04,2.00e+00,
-4.505000e-04,2.40e+00,
-4.504000e-04,2.00e+00,
-4.503000e-04,1.60e+00,
-4.502000e-04,2.00e+00,
-4.501000e-04,2.40e+00,
-4.500000e-04,3.00e+00,
-4.499000e-04,1.60e+00,
-4.498000e-04,1.60e+00,
-4.497000e-04,1.80e+00,
-4.496000e-04,2.00e+00,
-4.495000e-04,2.20e+00,
-4.494000e-04,1.80e+00,
-4.493000e-04,1.40e+00,
-4.492000e-04,2.20e+00,
-4.491000e-04,2.40e+00,
-4.490000e-04,1.80e+00,
-4.489000e-04,1.60e+00,
-4.488000e-04,1.40e+00,
-4.487000e-04,2.20e+00,
-4.486000e-04,1.80e+00,
-4.485000e-04,1.80e+00,
-4.484000e-04,2.00e+00,
-4.483000e-04,2.40e+00,
-4.482000e-04,2.80e+00,
-4.481000e-04,2.00e+00,
-4.480000e-04,2.00e+00,
-4.479000e-04,1.40e+00,
-4.478000e-04,1.80e+00,
-4.477000e-04,1.20e+00,
-4.476000e-04,1.20e+00,
-4.475000e-04,1.80e+00,
-4.474000e-04,2.00e+00,
-4.473000e-04,1.80e+00,
-4.472000e-04,1.80e+00,
-4.471000e-04,1.80e+00,
-4.470000e-04,2.00e+00,
-4.469000e-04,2.00e+00,
-4.468000e-04,2.40e+00,
-4.467000e-04,1.80e+00,
-4.466000e-04,1.80e+00,
-4.465000e-04,1.80e+00,
-4.464000e-04,2.00e+00,
-4.463000e-04,1.80e+00,
-4.462000e-04,2.00e+00,
-4.461000e-04,2.20e+00,
-4.460000e-04,1.80e+00,
-4.459000e-04,2.40e+00,
-4.458000e-04,1.80e+00,
-4.457000e-04,1.80e+00,
-4.456000e-04,1.40e+00,
-4.455000e-04,1.40e+00,
-4.454000e-04,1.60e+00,
-4.453000e-04,2.80e+00,
-4.452000e-04,1.80e+00,
-4.451000e-04,2.20e+00,
-4.450000e-04,1.60e+00,
-4.449000e-04,1.60e+00,
-4.448000e-04,2.00e+00,
-4.447000e-04,2.00e+00,
-4.446000e-04,2.40e+00,
-4.445000e-04,2.00e+00,
-4.444000e-04,2.80e+00,
-4.443000e-04,1.60e+00,
-4.442000e-04,2.40e+00,
-4.441000e-04,2.00e+00,
-4.440000e-04,1.80e+00,
-4.439000e-04,1.60e+00,
-4.438000e-04,1.80e+00,
-4.437000e-04,1.80e+00,
-4.436000e-04,1.60e+00,
-4.435000e-04,1.80e+00,
-4.434000e-04,2.00e+00,
-4.433000e-04,1.60e+00,
-4.432000e-04,1.40e+00,
-4.431000e-04,2.00e+00,
-4.430000e-04,1.60e+00,
-4.429000e-04,2.40e+00,
-4.428000e-04,2.20e+00,
-4.427000e-04,2.40e+00,
-4.426000e-04,1.00e+00,
-4.425000e-04,2.00e+00,
-4.424000e-04,1.60e+00,
-4.423000e-04,2.20e+00,
-4.422000e-04,2.20e+00,
-4.421000e-04,2.00e+00,
-4.420000e-04,2.20e+00,
-4.419000e-04,2.20e+00,
-4.418000e-04,1.60e+00,
-4.417000e-04,1.60e+00,
-4.416000e-04,1.60e+00,
-4.415000e-04,2.00e+00,
-4.414000e-04,2.00e+00,
-4.413000e-04,2.00e+00,
-4.412000e-04,2.00e+00,
-4.411000e-04,2.20e+00,
-4.410000e-04,2.00e+00,
-4.409000e-04,2.80e+00,
-4.408000e-04,2.80e+00,
-4.407000e-04,2.00e+00,
-4.406000e-04,2.60e+00,
-4.405000e-04,2.20e+00,
-4.404000e-04,1.20e+00,
-4.403000e-04,1.80e+00,
-4.402000e-04,1.60e+00,
-4.401000e-04,2.20e+00,
-4.400000e-04,3.20e+00,
-4.399000e-04,2.40e+00,
-4.398000e-04,2.00e+00,
-4.397000e-04,2.00e+00,
-4.396000e-04,2.00e+00,
-4.395000e-04,2.20e+00,
-4.394000e-04,2.00e+00,
-4.393000e-04,1.80e+00,
-4.392000e-04,2.40e+00,
-4.391000e-04,2.00e+00,
-4.390000e-04,2.00e+00,
-4.389000e-04,2.40e+00,
-4.388000e-04,2.20e+00,
-4.387000e-04,1.80e+00,
-4.386000e-04,1.80e+00,
-4.385000e-04,1.80e+00,
-4.384000e-04,2.80e+00,
-4.383000e-04,1.60e+00,
-4.382000e-04,1.60e+00,
-4.381000e-04,2.60e+00,
-4.380000e-04,2.00e+00,
-4.379000e-04,2.00e+00,
-4.378000e-04,1.60e+00,
-4.377000e-04,1.20e+00,
-4.376000e-04,1.80e+00,
-4.375000e-04,2.20e+00,
-4.374000e-04,2.40e+00,
-4.373000e-04,1.60e+00,
-4.372000e-04,1.60e+00,
-4.371000e-04,2.60e+00,
-4.370000e-04,2.00e+00,
-4.369000e-04,2.20e+00,
-4.368000e-04,1.80e+00,
-4.367000e-04,2.60e+00,
-4.366000e-04,2.60e+00,
-4.365000e-04,1.00e+00,
-4.364000e-04,1.80e+00,
-4.363000e-04,2.20e+00,
-4.362000e-04,1.60e+00,
-4.361000e-04,1.00e+00,
-4.360000e-04,1.20e+00,
-4.359000e-04,2.00e+00,
-4.358000e-04,2.00e+00,
-4.357000e-04,1.60e+00,
-4.356000e-04,3.40e+00,
-4.355000e-04,1.60e+00,
-4.354000e-04,2.00e+00,
-4.353000e-04,3.00e+00,
-4.352000e-04,1.80e+00,
-4.351000e-04,2.20e+00,
-4.350000e-04,1.80e+00,
-4.349000e-04,1.60e+00,
-4.348000e-04,8.00e-01,
-4.347000e-04,1.80e+00,
-4.346000e-04,1.80e+00,
-4.345000e-04,2.40e+00,
-4.344000e-04,2.40e+00,
-4.343000e-04,1.60e+00,
-4.342000e-04,2.20e+00,
-4.341000e-04,2.60e+00,
-4.340000e-04,1.80e+00,
-4.339000e-04,1.80e+00,
-4.338000e-04,2.20e+00,
-4.337000e-04,2.20e+00,
-4.336000e-04,2.00e+00,
-4.335000e-04,1.80e+00,
-4.334000e-04,2.80e+00,
-4.333000e-04,2.40e+00,
-4.332000e-04,2.20e+00,
-4.331000e-04,2.40e+00,
-4.330000e-04,1.80e+00,
-4.329000e-04,2.00e+00,
-4.328000e-04,2.00e+00,
-4.327000e-04,1.80e+00,
-4.326000e-04,1.60e+00,
-4.325000e-04,2.40e+00,
-4.324000e-04,1.40e+00,
-4.323000e-04,2.40e+00,
-4.322000e-04,1.80e+00,
-4.321000e-04,2.00e+00,
-4.320000e-04,1.40e+00,
-4.319000e-04,2.40e+00,
-4.318000e-04,1.60e+00,
-4.317000e-04,1.80e+00,
-4.316000e-04,2.00e+00,
-4.315000e-04,2.60e+00,
-4.314000e-04,2.60e+00,
-4.313000e-04,2.20e+00,
-4.312000e-04,2.00e+00,
-4.311000e-04,2.00e+00,
-4.310000e-04,1.60e+00,
-4.309000e-04,2.80e+00,
-4.308000e-04,1.80e+00,
-4.307000e-04,2.20e+00,
-4.306000e-04,1.60e+00,
-4.305000e-04,2.40e+00,
-4.304000e-04,1.80e+00,
-4.303000e-04,1.80e+00,
-4.302000e-04,3.00e+00,
-4.301000e-04,2.40e+00,
-4.300000e-04,1.80e+00,
-4.299000e-04,2.20e+00,
-4.298000e-04,2.60e+00,
-4.297000e-04,2.00e+00,
-4.296000e-04,2.00e+00,
-4.295000e-04,2.00e+00,
-4.294000e-04,1.40e+00,
-4.293000e-04,1.20e+00,
-4.292000e-04,1.80e+00,
-4.291000e-04,2.20e+00,
-4.290000e-04,2.60e+00,
-4.289000e-04,1.40e+00,
-4.288000e-04,2.00e+00,
-4.287000e-04,2.80e+00,
-4.286000e-04,8.00e-01,
-4.285000e-04,1.20e+00,
-4.284000e-04,1.60e+00,
-4.283000e-04,3.00e+00,
-4.282000e-04,1.60e+00,
-4.281000e-04,2.40e+00,
-4.280000e-04,2.80e+00,
-4.279000e-04,1.80e+00,
-4.278000e-04,2.20e+00,
-4.277000e-04,2.00e+00,
-4.276000e-04,1.60e+00,
-4.275000e-04,3.00e+00,
-4.274000e-04,1.80e+00,
-4.273000e-04,1.80e+00,
-4.272000e-04,2.60e+00,
-4.271000e-04,2.00e+00,
-4.270000e-04,2.20e+00,
-4.269000e-04,2.60e+00,
-4.268000e-04,2.00e+00,
-4.267000e-04,1.80e+00,
-4.266000e-04,2.60e+00,
-4.265000e-04,1.60e+00,
-4.264000e-04,2.00e+00,
-4.263000e-04,1.80e+00,
-4.262000e-04,1.60e+00,
-4.261000e-04,2.00e+00,
-4.260000e-04,2.00e+00,
-4.259000e-04,2.40e+00,
-4.258000e-04,2.20e+00,
-4.257000e-04,2.20e+00,
-4.256000e-04,2.20e+00,
-4.255000e-04,2.20e+00,
-4.254000e-04,2.40e+00,
-4.253000e-04,1.40e+00,
-4.252000e-04,2.60e+00,
-4.251000e-04,2.20e+00,
-4.250000e-04,2.60e+00,
-4.249000e-04,1.00e+00,
-4.248000e-04,2.00e+00,
-4.247000e-04,1.80e+00,
-4.246000e-04,1.60e+00,
-4.245000e-04,2.20e+00,
-4.244000e-04,1.60e+00,
-4.243000e-04,2.00e+00,
-4.242000e-04,2.40e+00,
-4.241000e-04,1.60e+00,
-4.240000e-04,1.60e+00,
-4.239000e-04,1.20e+00,
-4.238000e-04,2.00e+00,
-4.237000e-04,2.40e+00,
-4.236000e-04,2.00e+00,
-4.235000e-04,2.80e+00,
-4.234000e-04,1.60e+00,
-4.233000e-04,2.00e+00,
-4.232000e-04,2.00e+00,
-4.231000e-04,2.40e+00,
-4.230000e-04,2.20e+00,
-4.229000e-04,2.00e+00,
-4.228000e-04,3.00e+00,
-4.227000e-04,2.00e+00,
-4.226000e-04,1.60e+00,
-4.225000e-04,1.80e+00,
-4.224000e-04,2.40e+00,
-4.223000e-04,1.80e+00,
-4.222000e-04,1.40e+00,
-4.221000e-04,2.20e+00,
-4.220000e-04,1.60e+00,
-4.219000e-04,2.20e+00,
-4.218000e-04,1.20e+00,
-4.217000e-04,1.80e+00,
-4.216000e-04,1.80e+00,
-4.215000e-04,2.20e+00,
-4.214000e-04,2.00e+00,
-4.213000e-04,1.80e+00,
-4.212000e-04,1.60e+00,
-4.211000e-04,1.20e+00,
-4.210000e-04,1.40e+00,
-4.209000e-04,2.20e+00,
-4.208000e-04,2.20e+00,
-4.207000e-04,1.80e+00,
-4.206000e-04,1.80e+00,
-4.205000e-04,3.00e+00,
-4.204000e-04,1.80e+00,
-4.203000e-04,2.40e+00,
-4.202000e-04,2.20e+00,
-4.201000e-04,1.80e+00,
-4.200000e-04,1.40e+00,
-4.199000e-04,1.40e+00,
-4.198000e-04,1.80e+00,
-4.197000e-04,2.40e+00,
-4.196000e-04,3.00e+00,
-4.195000e-04,1.60e+00,
-4.194000e-04,2.40e+00,
-4.193000e-04,2.20e+00,
-4.192000e-04,1.60e+00,
-4.191000e-04,1.60e+00,
